<?xml version="1.0" encoding="UTF-8"?>
<testng-results skipped="0" failed="0" total="3" passed="3">
  <reporter-output>
    <line>
      <![CDATA[Testing CreateUser ]]>
    </line>
    <line>
      <![CDATA[Testing Valid Credentials ]]>
    </line>
    <line>
      <![CDATA[Testing Invalid Credentials ]]>
    </line>
  </reporter-output>
  <suite name="caccoladeTests" duration-ms="20854" started-at="2016-09-01T14:10:48Z" finished-at="2016-09-01T14:11:09Z">
    <groups>
    </groups>
    <test name="selenium suite" duration-ms="20854" started-at="2016-09-01T14:10:48Z" finished-at="2016-09-01T14:11:09Z">
      <class name="selenium.Login">
        <test-method status="PASS" signature="setUpClass()[pri:0, instance:selenium.Login@6aceb1a5]" name="setUpClass" is-config="true" duration-ms="7" started-at="2016-09-01T10:10:48Z" finished-at="2016-09-01T10:10:48Z">
          <reporter-output>
          </reporter-output>
        </test-method> <!-- setUpClass -->
        <test-method status="PASS" signature="Createuser()[pri:0, instance:selenium.Login@6aceb1a5]" name="Createuser" duration-ms="8631" started-at="2016-09-01T10:10:48Z" finished-at="2016-09-01T10:10:56Z">
          <reporter-output>
            <line>
              <![CDATA[Testing CreateUser ]]>
            </line>
          </reporter-output>
        </test-method> <!-- Createuser -->
        <test-method status="PASS" signature="setUpMethod()[pri:0, instance:selenium.Login@6aceb1a5]" name="setUpMethod" is-config="true" duration-ms="0" started-at="2016-09-01T10:10:48Z" finished-at="2016-09-01T10:10:48Z">
          <reporter-output>
          </reporter-output>
        </test-method> <!-- setUpMethod -->
        <test-method status="PASS" signature="tearDownMethod()[pri:0, instance:selenium.Login@6aceb1a5]" name="tearDownMethod" is-config="true" duration-ms="1" started-at="2016-09-01T10:10:56Z" finished-at="2016-09-01T10:10:56Z">
          <reporter-output>
          </reporter-output>
        </test-method> <!-- tearDownMethod -->
        <test-method status="PASS" signature="loginGoodCreds()[pri:0, instance:selenium.Login@6aceb1a5]" name="loginGoodCreds" duration-ms="6792" started-at="2016-09-01T10:10:56Z" finished-at="2016-09-01T10:11:03Z">
          <reporter-output>
            <line>
              <![CDATA[Testing Valid Credentials ]]>
            </line>
          </reporter-output>
        </test-method> <!-- loginGoodCreds -->
        <test-method status="PASS" signature="setUpMethod()[pri:0, instance:selenium.Login@6aceb1a5]" name="setUpMethod" is-config="true" duration-ms="0" started-at="2016-09-01T10:10:56Z" finished-at="2016-09-01T10:10:56Z">
          <reporter-output>
          </reporter-output>
        </test-method> <!-- setUpMethod -->
        <test-method status="PASS" signature="tearDownMethod()[pri:0, instance:selenium.Login@6aceb1a5]" name="tearDownMethod" is-config="true" duration-ms="1" started-at="2016-09-01T10:11:03Z" finished-at="2016-09-01T10:11:03Z">
          <reporter-output>
          </reporter-output>
        </test-method> <!-- tearDownMethod -->
        <test-method status="PASS" signature="loginInvalidCreds()[pri:0, instance:selenium.Login@6aceb1a5]" name="loginInvalidCreds" duration-ms="5411" started-at="2016-09-01T10:11:03Z" finished-at="2016-09-01T10:11:09Z">
          <reporter-output>
            <line>
              <![CDATA[Testing Invalid Credentials ]]>
            </line>
          </reporter-output>
        </test-method> <!-- loginInvalidCreds -->
        <test-method status="PASS" signature="setUpMethod()[pri:0, instance:selenium.Login@6aceb1a5]" name="setUpMethod" is-config="true" duration-ms="0" started-at="2016-09-01T10:11:03Z" finished-at="2016-09-01T10:11:03Z">
          <reporter-output>
          </reporter-output>
        </test-method> <!-- setUpMethod -->
        <test-method status="PASS" signature="tearDownClass()[pri:0, instance:selenium.Login@6aceb1a5]" name="tearDownClass" is-config="true" duration-ms="1" started-at="2016-09-01T10:11:09Z" finished-at="2016-09-01T10:11:09Z">
          <reporter-output>
          </reporter-output>
        </test-method> <!-- tearDownClass -->
        <test-method status="PASS" signature="tearDownMethod()[pri:0, instance:selenium.Login@6aceb1a5]" name="tearDownMethod" is-config="true" duration-ms="0" started-at="2016-09-01T10:11:09Z" finished-at="2016-09-01T10:11:09Z">
          <reporter-output>
          </reporter-output>
        </test-method> <!-- tearDownMethod -->
      </class> <!-- selenium.Login -->
    </test> <!-- selenium suite -->
  </suite> <!-- caccoladeTests -->
</testng-results>
